objid	container	server_template_crc	cell_index	px	py	pz	qw	qx	qy	qz	scripts	objvars
i	i	h	i	f	f	f	f	f	f	f	s	p
529322	0	object/building/general/dantooine_janta_cave.iff	0	961.727	74.2809	3.00439	-0.652136	0	0.758102	0		$|
529323	529322	object/cell/cell.iff	1	0	0	0	1	0	0	0		$|
529324	529322	object/cell/cell.iff	2	0	0	0	1	0	0	0		$|
529341	529324	object/tangible/poi/spawnegg/interior_spawnegg.iff	2	9.646007538	-23.21339035	-23.14383125	1	0	0	0		intRandomYaw|0|1|$|
529325	529322	object/cell/cell.iff	3	0	0	0	1	0	0	0		$|
529342	529325	object/tangible/poi/spawnegg/interior_spawnegg.iff	3	5.886486053	-40.90317917	-76.06769562	1	0	0	0		intRandomYaw|0|1|$|
529343	529325	object/tangible/poi/spawnegg/interior_spawnegg.iff	3	-11.25333405	-40.62334061	-78.14917755	1	0	0	0		intRandomYaw|0|1|$|
529326	529322	object/cell/cell.iff	4	0	0	0	1	0	0	0		$|
529344	529326	object/tangible/poi/spawnegg/interior_spawnegg.iff	4	39.2567215	-45.77373505	-57.03393173	1	0	0	0		intRandomYaw|0|1|$|
529345	529326	object/tangible/poi/spawnegg/interior_spawnegg.iff	4	44.09768677	-46.23182297	-92.68983459	1	0	0	0		intRandomYaw|0|1|$|
529346	529326	object/tangible/container/loot/placable_loot_crate.iff	4	51.4471	-44.4211	-103.465	0.94441	0	-0.328769	0		$|
529327	529322	object/cell/cell.iff	5	0	0	0	1	0	0	0		$|
529347	529327	object/tangible/poi/spawnegg/interior_spawnegg.iff	5	-0.540067017	-44.8968277	-140.5220947	1	0	0	0		intRandomYaw|0|1|$|
529348	529327	object/tangible/poi/spawnegg/interior_spawnegg.iff	5	-10.33716679	-44.54055405	-136.5695801	1	0	0	0		intRandomYaw|0|1|$|
529349	529327	object/tangible/container/loot/placable_loot_crate.iff	5	-10.4971	-45.4992	-147.5	1	0	0	0		$|
529353	529327	object/tangible/container/loot/placable_loot_crate.iff	5	58.0106	-57.5355	-184.28	1	0	0	0		$|
529328	529322	object/cell/cell.iff	6	0	0	0	1	0	0	0		$|
529329	529322	object/cell/cell.iff	7	0	0	0	1	0	0	0		$|
529355	529329	object/tangible/poi/spawnegg/interior_spawnegg.iff	7	-10.76630592	-63.98707199	-224.1595154	1	0	0	0		intRandomYaw|0|1|$|
529356	529329	object/tangible/poi/spawnegg/interior_spawnegg.iff	7	-7.012625217	-64.45516205	-236.5915222	1	0	0	0		intRandomYaw|0|1|$|
529330	529322	object/cell/cell.iff	8	0	0	0	1	0	0	0		$|
529357	529330	object/tangible/poi/spawnegg/interior_spawnegg.iff	8	-63.15408325	-70.32534027	-178.3486938	1	0	0	0		intRandomYaw|0|1|$|
529358	529330	object/tangible/poi/spawnegg/interior_spawnegg.iff	8	-99.23536682	-70.28019714	-118.9204941	1	0	0	0		intRandomYaw|0|1|$|
529365	529330	object/tangible/poi/spawnegg/interior_spawnegg.iff	8	-82.22270203	-100.4080276	-142.2389526	1	0	0	0		intRandomYaw|0|1|$|
4706092	529330	object/tangible/collection/rare_carbine_blackscale_hall_sweeper.iff	8	-70.7881	-69.7817	-149.062	0.542982	-0.153703	0.161715	0.809564		$|
529331	529322	object/cell/cell.iff	9	0	0	0	1	0	0	0		$|
529359	529331	object/tangible/poi/spawnegg/interior_spawnegg.iff	9	-69.95039368	-68.58544922	-102.0300522	1	0	0	0		intRandomYaw|0|1|$|
529360	529331	object/tangible/poi/spawnegg/interior_spawnegg.iff	9	-68.78916931	-70.30937958	-87.81950378	1	0	0	0		intRandomYaw|0|1|$|
529361	529331	object/tangible/poi/spawnegg/interior_spawnegg.iff	9	-37.83337021	-70.50406647	-106.8530884	1	0	0	0		intRandomYaw|0|1|$|
529362	529331	object/tangible/poi/spawnegg/interior_spawnegg.iff	9	-31.70995712	-70.15242767	-92.63324738	1	0	0	0		intRandomYaw|0|1|$|
529363	529331	object/tangible/container/loot/placable_loot_crate.iff	9	-11.69	-69.1962	-89.8369	0.0799147	0	0.996802	0		$|
4465373	529331	object/tangible/dungeon/corellian_corvette/corvette_search_imperial_destroy_03.iff	9	-10.4094	-69.0209	-90.5859	0.990922	-0.0965763	0.0920533	0.016496		$|
529332	529322	object/cell/cell.iff	10	0	0	0	1	0	0	0		$|
529333	529322	object/cell/cell.iff	11	0	0	0	1	0	0	0		$|
529366	529333	object/tangible/poi/spawnegg/interior_spawnegg.iff	11	-83.03827667	-99.84002686	-99.59963989	1	0	0	0		intRandomYaw|0|1|$|
529367	529333	object/tangible/poi/spawnegg/interior_spawnegg.iff	11	-96.93262482	-100.6253891	-100.2331085	1	0	0	0		intRandomYaw|0|1|$|
8465680	0	object/static/structure/dantooine/dant_fence_8m.iff	0	695.57	60.4164	1859.11	0.667463	0	0.744643	0		$|
8465681	0	object/static/structure/dantooine/dant_fence_8m.iff	0	691.854	59.7228	1854.58	0.685869	0	0.727726	0		$|
8465682	0	object/static/structure/dantooine/dant_fence_8m.iff	0	692.102	60	1846.17	0.741827	0	0.670592	0		$|
8465683	0	object/static/structure/dantooine/dant_fence_8m.iff	0	695.371	60.6936	1850.51	0.741828	0	0.670591	0		$|
8465684	0	object/static/structure/dantooine/dant_fence_8m.iff	0	693.671	60	1837.83	0.774416	0	0.632677	0		$|
8465685	0	object/static/structure/dantooine/dant_fence_8m.iff	0	696.55	60.6936	1842.3	0.774417	0	0.632676	0		$|
8465691	0	object/static/structure/dantooine/dant_fence_8m.iff	0	699.008	60.6936	1834.37	0.833712	0	0.552199	0		$|
8465692	0	object/static/structure/dantooine/dant_fence_8m.iff	0	696.61	60	1829.78	0.865323	0	0.501215	0		$|
8465693	0	object/static/structure/dantooine/dant_fence_8m.iff	0	701.428	60.2772	1822.88	0.902608	0	0.430463	0		$|
8465694	0	object/static/structure/dantooine/dant_fence_8m.iff	0	703.034	60.9708	1826.76	0.886992	0	0.461784	0		$|
8465696	0	object/static/structure/dantooine/dant_fence_8m.iff	0	708.071	60.9708	1820.17	0.908964	0	0.416875	0		$|
8465699	0	object/static/structure/dantooine/dant_totem_pole.iff	0	695.701	60.0537	1864.28	0.780707	0	0.624897	0		$|
8465700	0	object/static/structure/dantooine/dant_totem_pole.iff	0	708.864	58.9668	1817	0.922997	0	0.384808	0		$|
8465702	0	object/static/structure/dantooine/dant_small_mudhut.iff	0	703.259	60	1858.48	-0.140332	0	0.990105	0		$|
8465703	0	object/static/structure/dantooine/dant_small_mudhut.iff	0	710.431	60	1843.47	0.83094	0	-0.556361	0		$|
8465704	0	object/static/structure/dantooine/dant_small_mudhut.iff	0	710.242	60	1852.82	-0.519098	0	0.854715	0		$|
8465706	0	object/static/structure/dantooine/dant_small_mudhut.iff	0	714.529	60	1835.57	-0.11057	0	0.993869	0		$|
8465707	0	object/static/structure/dantooine/dant_small_mudhut.iff	0	726.985	60	1831.96	-0.408486	0	0.912764	0		$|
8465708	0	object/static/structure/dantooine/dant_small_mudhut.iff	0	730.303	60	1823.9	-0.682221	0	0.731146	0		$|
8465709	0	object/static/structure/dantooine/dant_mud_oven.iff	0	707.75	60	1836.56	-0.42666	0	0.904412	0		$|
8465717	0	object/static/structure/general/campfire_fresh.iff	0	703.386	60	1858.67	1	0	0	0		$|
8465718	0	object/static/structure/general/campfire_fresh.iff	0	725.778	60	1832.42	1	0	0	0		$|
8465719	0	object/static/structure/general/campfire_fresh.iff	0	707.387	60.4427	1835.95	-0.700285	0	0.713864	0		$|
8465729	0	object/static/structure/tatooine/tent_house_tatooine_style_01.iff	0	736.821	60	1832.91	0.334238	0	0.942489	0		$|
8465735	0	object/static/structure/tatooine/tent_house_tatooine_style_01.iff	0	719.245	60	1866.91	0.993395	0	0.114747	0		$|
8465736	0	object/static/structure/general/landing_pad_shuttle.iff	0	731.435	60	1856.76	0.939373	0	-0.342898	0		$|
8465739	0	object/static/vehicle/player_shuttle.iff	0	733.292	60	1855.22	0.921061	0	-0.389418	0		$|
8465744	0	object/static/structure/general/tankfarm_s01.iff	0	731.39	60	1864.94	-0.408488	0	0.912764	0		$|
8465747	0	object/static/structure/general/tankfarm_s01.iff	0	738.244	60	1859.85	0.91038	0	0.413772	0		$|
8465756	0	object/static/item/item_tool_sensor_beacon.iff	0	680.157	61.6709	1818.17	1	0	0	0		$|
8465758	0	object/static/item/item_tool_sensor_beacon.iff	0	651.973	63.5015	1765.98	1	0	0	0		$|
8465759	0	object/static/item/item_tool_sensor_beacon.iff	0	702.168	47.7526	1755.65	1	0	0	0		$|
8465760	0	object/static/item/item_tool_sensor_beacon.iff	0	648.338	57.3798	1894.92	1	0	0	0		$|
8465764	0	object/static/structure/general/poi_tato_tent_s01.iff	0	739.299	60	1843.01	0.808027	0	0.589145	0		$|
8465765	0	object/static/structure/general/poi_tato_tent_s01.iff	0	709.966	60	1864.14	0.930508	0	-0.366273	0		$|
8465767	0	object/static/structure/tatooine/debris_tatt_drum_dented_1.iff	0	717.568	60	1868.34	1	0	0	0		$|
8465768	0	object/static/structure/tatooine/debris_tatt_drum_dented_1.iff	0	718.462	60	1869.31	-0.3043	0	0.952576	0		$|
8465769	0	object/static/structure/tatooine/debris_tatt_crate_metal_1.iff	0	721.237	60	1868.92	0.981048	0	-0.193767	0		$|
8465770	0	object/static/structure/tatooine/debris_tatt_crate_metal_1.iff	0	721.53	60	1868.21	1	0	0	0		$|
8465771	0	object/static/structure/tatooine/debris_tatt_crate_metal_1.iff	0	721.566	60	1867.48	0.980067	0	0.198669	0		$|
8465772	0	object/static/item/item_container_energy_liquid.iff	0	717.086	60	1864.43	1	0	0	0		$|
8465773	0	object/static/item/item_container_energy_liquid.iff	0	716.839	60	1864.78	1	0	0	0		$|
8465774	0	object/static/item/item_container_energy_liquid.iff	0	716.507	60	1865.44	1	0	0	0		$|
8465775	0	object/static/item/item_container_energy_liquid.iff	0	717.056	60	1865.23	1	0	0	0		$|
8465777	0	object/static/item/item_container_installation.iff	0	721.195	60	1865.43	0.946042	0	0.324043	0		$|
8465778	0	object/static/item/item_container_organic_food.iff	0	736.516	60	1836.1	-0.376297	0	0.926499	0		$|
8465779	0	object/static/item/item_container_organic_food.iff	0	737	60	1835.98	-0.243329	0	0.969944	0		$|
8465780	0	object/static/item/item_container_organic_food.iff	0	737.489	60	1835.81	0.500524	0	0.865723	0		$|
8465781	0	object/static/item/item_container_organic_food.iff	0	736.728	60	1835.73	-0.296281	0	0.955101	0		$|
8465782	0	object/static/item/item_container_organic_food.iff	0	737.125	60	1835.59	-0.243329	0	0.969944	0		$|
8465789	0	object/static/item/item_container_electronics.iff	0	738.624	60	1834.25	0.991562	0	-0.129634	0		$|
8465790	0	object/static/item/item_container_electronics.iff	0	738.394	60.6957	1831.95	-0.380925	0	0.924606	0		$|
8465861	0	object/static/particle/pt_steam_rise.iff	0	732.502	65.9565	1863.34	1	0	0	0		$|
8465866	0	object/static/creature/droids_le_repair.iff	0	730.524	60	1853.29	0.0940643	0	0.995566	0		$|
8465867	0	object/static/creature/droids_r2.iff	0	731.989	60	1852.43	0.724836	0	-0.688921	0		$|
8465872	0	object/static/structure/general/droid_r5_powerdown.iff	0	735.249	60	1839.57	0.953847	0	-0.300293	0		$|
8465877	0	object/tangible/furniture/all/frn_all_toolchest_lg_s01.iff	0	734.182	60	1848.09	0.949235	0	-0.314567	0		$|
8465882	0	object/static/item/item_container_armor.iff	0	726.77	60	1856.48	0.932327	0	0.361615	0		$|
8465883	0	object/static/item/item_container_armor.iff	0	727.738	60	1855.31	0.886995	0	0.461779	0		$|
8465884	0	object/static/item/item_container_electronics.iff	0	729.685	60	1854.69	0.188077	0	0.982154	0		$|
8465894	0	object/static/structure/general/banner_rebel_style_01.iff	0	715.414	60	1862.72	0.178246	0	0.983986	0		$|
8465895	0	object/static/structure/general/banner_rebel_style_01.iff	0	736.583	60	1838.55	0.825336	0	-0.564642	0		$|
529338	0	object/tangible/poi/spawnegg/exterior_spawnegg.iff	0	914.539551	52.2177124	28.553711	1	0	0	0		$|
